A Tidy Transcriptomics introduction to RNA-Seq analyses • tidytranscriptomics
…
In this workshop we will be using the tidyverse pipe %>%. This ‘pipes’ the output from the command on the left into the command on the right/below. Using the pipe is not essential but it reduces the amount of code we need to write when we have multiple steps (as we’ll see later). It also can make the steps clearer and easier to see. For more details on the pipe see here.

# load airway RNA-Seq data
data(airway)

# convert to tidybulk format
counts_airway <-
    airway %>%
    tidybulk()

You can type the name of the object to view the first few lines and to see how many rows and columns it has.

counts_airway
#> # A tibble: 512,816 x 12
#>    feature sample counts SampleName cell  dex   albut Run   avgLength Experiment
#>    <fct>   <fct>   <int> <fct>      <fct> <fct> <fct> <fct>     <int> <fct>     
#>  1 ENSG00… SRR10…    679 GSM1275862 N613… untrt untrt SRR1…       126 SRX384345 
#>  2 ENSG00… SRR10…      0 GSM1275862 N613… untrt untrt SRR1…       126 SRX384345 
#>  3 ENSG00… SRR10…    467 GSM1275862 N613… untrt untrt SRR1…       126 SRX384345 
#>  4 ENSG00… SRR10…    260 GSM1275862 N613… untrt untrt SRR1…       126 SRX384345 
#>  5 ENSG00… SRR10…     60 GSM1275862 N613… untrt untrt SRR1…       126 SRX384345 
#>  6 ENSG00… SRR10…      0 GSM1275862 N613… untrt untrt SRR1…       126 SRX384345 
#>  7 ENSG00… SRR10…   3251 GSM1275862 N613… untrt untrt SRR1…       126 SRX384345 
#>  8 ENSG00… SRR10…   1433 GSM1275862 N613… untrt untrt SRR1…       126 SRX384345 
#>  9 ENSG00… SRR10…    519 GSM1275862 N613… untrt untrt SRR1…       126 SRX384345 
#> 10 ENSG00… SRR10…    394 GSM1275862 N613… untrt untrt SRR1…       126 SRX384345 
#> # … with 512,806 more rows, and 2 more variables: Sample <fct>, BioSample <fct>

The counts_tt object contains information about genes and samples, the first column has the Ensembl gene identifier, the second column has the sample identifier and the third column has the gene transcription abundance expressed in number of reads aligning to the gene in each experimental sample. The remaining columns include sample-wise information. The dex column tells us whether the samples are treated or untreated and the cell column tells us what cell line they are from.

We can shorten the sample names. We can remove the SRR1039 prefix that’s present in all of them, as shorter names can fit better in some of the plots we will create. We can use mutate() together with str_replace() to remove the SRR1039 string from the sample column.

counts_format <- counts_airway %>%
  mutate(sample=str_remove(sample, "SRR1039"))

Adding gene symbols

We can get the gene symbols for these Ensembl gene ids with tidybulk’s ensembl_to_symbol. This works for human and mouse.

counts_tt <- ensembl_to_symbol(counts_format, feature)
counts_tt
#> # A tibble: 512,816 x 14
#>    feature sample counts SampleName cell  dex   albut Run   avgLength Experiment
#>    <chr>   <chr>   <int> <fct>      <fct> <fct> <fct> <fct>     <int> <fct>     
#>  1 ENSG00… 508       679 GSM1275862 N613… untrt untrt SRR1…       126 SRX384345 
#>  2 ENSG00… 508         0 GSM1275862 N613… untrt untrt SRR1…       126 SRX384345 
#>  3 ENSG00… 508       467 GSM1275862 N613… untrt untrt SRR1…       126 SRX384345 
#>  4 ENSG00… 508       260 GSM1275862 N613… untrt untrt SRR1…       126 SRX384345 
#>  5 ENSG00… 508        60 GSM1275862 N613… untrt untrt SRR1…       126 SRX384345 
#>  6 ENSG00… 508         0 GSM1275862 N613… untrt untrt SRR1…       126 SRX384345 
#>  7 ENSG00… 508      3251 GSM1275862 N613… untrt untrt SRR1…       126 SRX384345 
#>  8 ENSG00… 508      1433 GSM1275862 N613… untrt untrt SRR1…       126 SRX384345 
#>  9 ENSG00… 508       519 GSM1275862 N613… untrt untrt SRR1…       126 SRX384345 
#> 10 ENSG00… 508       394 GSM1275862 N613… untrt untrt SRR1…       126 SRX384345 
#> # … with 512,806 more rows, and 4 more variables: Sample <fct>,
#> #   BioSample <fct>, transcript <chr>, ref_genome <chr>
…
Genes with very low counts across all libraries provide little evidence for differential expression and they interfere with some of the statistical approximations that are used later in the pipeline. They also add to the multiple testing burden when estimating false discovery rates, reducing power to detect differentially expressed genes. These genes should be filtered out prior to further analysis.

With tidybulk, it is not really necessary to explicitly filter lowly transcribed genes, as all calculations (e.g., scaling, removal of unwanted variation, differential expression testing) are performed on abundantly transcribed genes; although in case of scaling, the scaling is applied back to all genes in the dataset. Tidybulk can use the edgeR filterByExpr function described here. By default, this will keep genes with ~10 counts in a minimum number of samples, the number of the samples in the smallest group. In this dataset the smallest group size is 2 samples. tidybulk performs this filtering in the functions we will use scale_abundance and test_differential_abundance.

Scaling counts to normalise

Scaling of counts, normalisation, is performed to eliminate uninteresting differences between samples. These are differences due to sequencing depth or composition. In the tidybulk package the function scale_abundance generates scaled counts, it will also perform the filtering. We can choose from different normalisation methods. Here we will use the default, TMM, [@robinson2010tmm]. TMM normalisation (and most scaling normalisation methods) scale relative to one sample.

# Scaling counts
counts_scaled <- counts_tt %>% scale_abundance(factor_of_interest = dex)

# take a look
counts_scaled
#> # A tibble: 512,816 x 18
#>    feature sample counts SampleName cell  dex   albut Run   avgLength Experiment
#>    <chr>   <chr>   <int> <fct>      <fct> <fct> <fct> <fct>     <int> <fct>     
#>  1 ENSG00… 508       679 GSM1275862 N613… untrt untrt SRR1…       126 SRX384345 
#>  2 ENSG00… 508         0 GSM1275862 N613… untrt untrt SRR1…       126 SRX384345 
#>  3 ENSG00… 508       467 GSM1275862 N613… untrt untrt SRR1…       126 SRX384345 
#>  4 ENSG00… 508       260 GSM1275862 N613… untrt untrt SRR1…       126 SRX384345 
#>  5 ENSG00… 508        60 GSM1275862 N613… untrt untrt SRR1…       126 SRX384345 
#>  6 ENSG00… 508         0 GSM1275862 N613… untrt untrt SRR1…       126 SRX384345 
#>  7 ENSG00… 508      3251 GSM1275862 N613… untrt untrt SRR1…       126 SRX384345 
#>  8 ENSG00… 508      1433 GSM1275862 N613… untrt untrt SRR1…       126 SRX384345 
#>  9 ENSG00… 508       519 GSM1275862 N613… untrt untrt SRR1…       126 SRX384345 
#> 10 ENSG00… 508       394 GSM1275862 N613… untrt untrt SRR1…       126 SRX384345 
#> # … with 512,806 more rows, and 8 more variables: Sample <fct>,
#> #   BioSample <fct>, transcript <chr>, ref_genome <chr>, counts_scaled <dbl>,
#> #   TMM <dbl>, multiplier <dbl>, lowly_abundant <lgl>
…
Differential expression

Now that we are happy that the data looks good, we can continue to testing for differentially expressed genes. We will use the test_differential_abundance from tidybulk which currently uses edgeR to perform the differential expression analysis. We give test_differential_abundance our tidybulk counts object and a formula, specifying the column that contains our groups to be compared. If all our samples were from the same cell line we could use the formula 0 + dex, however, each treated and untreated sample is from a different cell line so we add the cell line as an additional factor 0 + dex + cell. We also provide the names of the groups we want to compare to .contrasts (e.g. .contrasts = c(“dextreat - dexuntreat”)). test_differential_abundance will perform the filtering of lowly expressed genes as described before. The results will be joined to our counts for every sample. If we just want a table of differentially expressed genes we can use pivot_transcript.

counts_de <- counts_tt %>%
    test_differential_abundance(
      .formula = ~ 0 + dex + cell,
      .contrasts = c("dextrt - dexuntrt"))
#> tidybulk says: The design column names are "dextrt, dexuntrt, cellN061011, cellN080611, cellN61311"
#> tidybulk says: to access the raw results (fitted GLM) do `attr(..., "internals")$edgeR`

# take a look
counts_de %>%
    pivot_transcript()
#> # A tibble: 64,102 x 11
#>    feature albut transcript ref_genome `logFC_dextrt -… `logCPM_dextrt …
#>    <chr>   <fct> <chr>      <chr>                 <dbl>            <dbl>
#>  1 ENSG00… untrt TSPAN6     hg38                -0.390              5.06
#>  2 ENSG00… untrt TNMD       hg38                NA                 NA   
#>  3 ENSG00… untrt DPM1       hg38                 0.198              4.61
#>  4 ENSG00… untrt SCYL3      hg38                 0.0292             3.48
#>  5 ENSG00… untrt C1orf112   hg38                -0.124              1.47
#>  6 ENSG00… untrt FGR        hg38                NA                 NA   
#>  7 ENSG00… untrt CFH        hg38                 0.417              8.09
#>  8 ENSG00… untrt FUCA2      hg38                -0.250              5.91
#>  9 ENSG00… untrt GCLC       hg38                -0.0581             4.84
#> 10 ENSG00… untrt NFYA       hg38                -0.509              4.13
#> # … with 64,092 more rows, and 5 more variables: `F_dextrt - dexuntrt` <dbl>,
#> #   `PValue_dextrt - dexuntrt` <dbl>, `FDR_dextrt - dexuntrt` <dbl>,
#> #   `significant_dextrt - dexuntrt` <lgl>, lowly_abundant <lgl>
…
